.ifndef FILEIDS_I
FILEIDS_I = 1

; TODO - Generate data/fs/files/*.defs from these

FILE_ID_TITLE_C		= $01
FILE_ID_MAIN_PRO	= $02

FILE_ID_SAVE            = $06
FILE_NO_SAVE            = 6

FILE_ID_IMAJIN_C	= $10
FILE_ID_LINA_C		= $11
FILE_ID_MAMA_C		= $12
FILE_ID_PAPA_C		= $13
FILE_ID_CHAR_C		= FILE_ID_IMAJIN_C

FILE_ID_BG_CHR_1	= $20
FILE_ID_BG_CHR_2	= $21
FILE_ID_BG_CHR_3	= $22
FILE_ID_BG_CHR_4	= $23
FILE_ID_BG_CHR_C	= $24

FILE_ID_CHAPTER_01	= $30
FILE_ID_CHAPTER_02	= $31
FILE_ID_CHAPTER_03	= $32
FILE_ID_CHAPTER_04	= $33
FILE_ID_CHAPTER_05	= $34
FILE_ID_CHAPTER_06	= $35
FILE_ID_CHAPTER_07	= $36
FILE_ID_ENDING_1	= $37

FILE_ID_TEMP_PRG	= $40

FILE_ID_SOUND_DT	= $A0

FILE_ID_DUMMY_DT	= $C0

FILE_ID_ENDING_C	= $D0
FILE_ID_EN_SND_D	= $D1

FILE_ID_ENDING_2	= $E0

FILE_ID_NULL		= $FF

.endif	; FILEIDS_I