.ifndef	MATH_I
MATH_I	= 1

MOD_2		= %00000001
MOD_4_2_UP	= %00000010
MOD_4		= %00000011
MOD_8_4_UP	= %00000100
MOD_8_2_UP	= %00000110
MOD_8		= %00000111
MOD_16_8_UP	= %00001000
MOD_16_4_UP	= %00001100
MOD_16		= %00001111
MOD_32_16_UP	= %00010000
MOD_32_8_UP	= %00011000
MOD_32		= %00011111
MOD_64_32_UP	= %00100000
MOD_64		= %00111111
MOD_128_64_UP	= %01000000
MOD_128		= %01111111

CLAMP_2		= %11111110
CLAMP_4		= %11111100
CLAMP_8		= %11111000
CLAMP_16	= %11110000
CLAMP_32	= %11100000
CLAMP_64	= %11000000
CLAMP_128	= %10000000

.endif	; MATH_I
