.ifndef TUNABLES_I
TUNABLES_I = 1

.include "system/fds.i"

.include "joypad.i"

.include "mem.i"

ENG_STARTING_LIVES		= 3
ENG_LIVES_MAX			= 255
ENG_HEALTH_FULL_TILE		= $B8
ENG_HEALTH_EMPTY_TILE		= $BA
ENG_FONT_TILE_BASE		= $D0
ENG_SUBCHAPTER_CURRENT_TILE	= $F6
ENG_SUBCHAPTER_OTHER_TILE	= $FD
ENG_LEVEL_END			= $13
ENG_CHAPTER_MIN			= 0
ENG_CHAPTER_COUNT		= 7
ENG_SAVE_MAGIC			= $A55A
ENG_CHARACTERS			= 4
ENG_FILELIST_SIDEA_LEN		= 4
ENG_FILELIST_SIDEB_LEN		= 5
ENG_SIDEB_FILECOUNT		= 20
OAM_INIT_SCANLINE		= 248
ENG_CHARSEL_WIPE_RATE		= 5
ENG_INVINC_MUSIC_CUTOFF_FRAME	= 8
ENG_HEALTH_MAX			= 4
ENG_POW_OFFSET_Y		= 3
ENG_HEALTH_METER_POS_H		= $10
ENG_HEALTH_METER_Y_POS		= $30
ENG_HEALTH_METER_Y_OFFSET	= $10
ENG_ERR_HEADER_BG_ADDR		= $1F4
ENG_ERR_REASON_BG_ADDR		= $1E6
ENG_ERR_WAIT_BG_ADDR		= $18D
ENG_ERR_MSG_SIZE_MAX		= $0C
ENG_PHYSICS_CLIMB_VELOC_X	= $10
ENG_PHYSICS_CLIMB_VELOC_Y_DOWN	= $20
ENG_PHYSICS_CLIMB_VELOC_Y_UP	= <(-(ENG_PHYSICS_CLIMB_VELOC_Y_DOWN-$10))
ENG_DIRECTION_RIGHT		= joypad_button::right
ENG_MASKEXIT_VELOC_X		= $04
ENG_CROUCH_ACCEL_X		= $03
ENG_CROUCH_FRICTION		= $02
ENG_FLOAT_VELOC_Y		= $04
ENG_CROUCH_JUMP_TIME		= $3C
ENG_TILECOL_ACCEL_Y             = $10
ENG_SNAPTO_DISP_X               = $08
ENG_SNAPTO_MASK_X               = $F0
ENG_POS_MASK                    = $0F
ENG_MARGIN_ITEM_X               = $06
ENG_PADDING_ITEM_X              = $0C
ENG_MARGIN_CLIMB_X              = $04
ENG_PADDING_CLIMB_X             = $08
ENG_MARGIN_JARENTER_X           = $04
ENG_PADDING_JARENTER_X          = $08
ENG_MARGIN_DOOR_X               = $05
ENG_PADDING_DOOR_X              = $0A
ENG_PADDING_CAMERA_X            = $78
ENG_HSCROLL_COLWIDTH		= $0A
ENG_HSCROLL_COLINC_BASE		= $00
ENG_HSCROLL_COLDEC_BASE		= -$07

SDISK_ERROR_OBJ_TILE		= $9D
SDISK_ERROR_OBJ_POS_V		= 71
SDISK_ERROR_OBJ_POS_H_0		= 136
SDISK_ERROR_OBJ_POS_H_1		= 144
SDISK_ERROR_OBJ_POS_H_2		= 152

SDISK_ERROR_BG_CLEAROUT_TILE	= $55
SDISK_ERROR_BG_CHR		= $9C0
SDISK_ERROR_BG_SORRY		= $14C
SDISK_ERROR_BG_PLEASE_USE	= $1E4
SDISK_ERROR_BG_WRITER		= $244
SDISK_ERROR_BG_CLEAROUT		= $3D3

BOOK_PAGE_BG_CHAPTER		= $C6
BOOK_PAGE_BG_LIVES		= $16B
BOOK_PAGE_BG_PAGENO		= $2F4

ENG_CHARSEL_IMAJIN_POS_V	= $57
ENG_CHARSEL_LINA_POS_V		= $6F
ENG_CHARSEL_MAMA_POS_V		= $87
ENG_CHARSEL_PAPA_POS_V		= $9F
ENG_CHARSEL_HEADLEFT_POS_H	= $20
ENG_CHARSEL_HEADRIGHT_POS_H	= $28
ENG_CHARSEL_LEVELDIST_H		= $38

OAM_73FD_POS_V			= $6F
OAM_73FD_LEFT_POS_H		= $58
OAM_73FD_RIGHT_POS_H		= $60

ENG_MAP_BOUND_MARGIN		= $0B
ENG_MAP_BOUND_DEC		= $30
ENG_MAP_BOUND_MASK		= $F0
ENG_MAP_BOUND_COUNT_V		= $15
ENG_MAP_BOUND_COUNT_H		= $18
ENG_MAP_BOUND_COUNT_ENEMIES	= $5

ENG_ACTOR_MAX			= 9
ENG_ACTOR_LO_COUNT		= 6

ENG_HEART_COUNT_ENEMIES		= 8
ENG_HEART_SPRITE_OFFSET		= $60
ENG_VELOC_Y_MAX			= $3D

ENG_STARMAN_CHERRIES		= 5

ENEMY_DOOR_BG_PAGESIZE	= $F0
ENEMY_DOOR_BG_POS	= $B8

ENG_PLAYER_HURT_VELOC_Y		= <-($40)
ENG_PLAYER_HIT_COOLDOWN_TIME	= $7F
ENG_PLAYER_DEATH_FALL_TIME	= $20

ENG_ACTOR_COOLDOWN_HURT_VELOC_Y	= <-($20)
ENG_ACTOR_HIT_COOLDOWN_TIME	= $21

ENG_ACTOR_BIRDO_TYPE		= zp_actor_work_byte_1

ENG_ACTOR_ALBATROSS_BOMB_THROWN	= zp_actor_work_byte_2

ENG_ACTOR_ROCKET_VELOC_Y	= <-($10)
ENG_ACTOR_ROCKET_POS_X		= $78

PPU_SCC_H_E0		= $E0

NMI_LIST_END		= 0

FDS_NMIMODE_MUTESQ_BIT	= 1

.endif	; TUNABLES_I
