.ifndef	UNK_I
UNK_I = 1

map_6000		= $6000
map_60F0		= $60F0
map_61E0		= $61E0
map_62D0		= $62D0
map_63C0		= $63C0
map_64B0		= $64B0
map_65A0		= $65A0
map_6690		= $6690
map_6780		= $6780
map_6870		= $6870
tbl_6900		= $6900

file_bg_color		= $BF00
file_bg_color_end	= $BF20
file_obj_color		= $BF70
file_area_offsets	= $BF94
file_map_pointer_lo	= $BF97
file_map_pointer_hi	= $BFB5
tbl_BFD3		= $BFD3
tbl_BFD7		= $BFD7
tbl_BFDB		= $BFDB
tbl_BFFB		= $BFFB
sub_C000		= $C000
tbl_C01B		= $C01B
tbl_C01E		= $C01E
tbl_C021		= $C021
tbl_C024		= $C024
tbl_C063		= $C063
byte_C06F		= $C06F
byte_C070		= $C070
byte_C071		= $C071
sub_C072		= $C072
sub_C08F		= $C08F
sub_C0A8		= $C0A8
sub_C0B2		= $C0B2
sub_C0D8		= $C0D8
eng_actor_chr_idx_page_1 = $C0DB
sub_c10a		= $C10A
eng_actor_rocket_render	= $C10D
actor_init_tryclyde	= $C136
actor_init_doormask_boss = $C138
sub_c149		= $C149
sub_c16f		= $C16F
eng_actor_tryclyde_render = $C195
sub_C231		= $C231
eng_actor_doormask_boss_render = $C239
eng_actor_fryguy_render	= $C249
sub_c27e		= $C27E
actor_init_fryguy	= $C28B
sub_c2ac		= $C2AC
actor_init_swarm_vegetables	= $C2D2
eng_actor_pidgit_render	= $C2F9
actor_init_cobrat	= $C2FD
sub_c308		= $C308
actor_init_wart	= $C31F
sub_c331		= $C331
actor_init_mouser	= $C35C
sub_C365		= $C365
sub_C367		= $C367
sub_c369		= $C369
sub_c387		= $C387
sub_c3d2		= $C3D2
eng_actor_mouser_render	= $C3E4
sub_c3f4		= $C3F4
eng_actor_wart_render	= $C409
actor_init_pokey	= $C41F
sub_c42b		= $C42B
eng_actor_ostro_render	= $C43E
eng_actor_ostro_routine = $C467
eng_actor_autobomb_render = $C46C
eng_actor_pokey_render	= $C4BD
actor_init_whalespout = $C4CB
sub_c4d3		= $C4D3
eng_actor_whale_spout_render = $C50C
sub_C525		= $C525
sub_c59a		= $C59A
sub_C950		= $C950

.endif	; UNK_I
