.ifndef PPU_I
PPU_I = 1

; References
; 1 - Ricoh RP2C02 Picture Processing Unit - December 3rd, 1982
; 2 - Ricoh RP2A03 Custom CPU - December 3rd, 1982

; Object Attribute RAM (OAM) [1](11.1.2)(p. 5)
	OBJ_POS_V	= 0
	OBJ_CHR_NO	= 1
	OBJ_ATTR	= 2
	OBJ_POS_H	= 3
	OBJ_SIZE	= 4
	OBJ_MAX		= 64

	.enum	obj_attr
		color0		= 0
		color1		= 1
		color2		= 2
		color3		= 3
		color_bits	= 3

		priority_bit	= %00100000
		priority_low	= priority_bit
		priority_high	= 0

		h_flip		= %01000000
		v_flip		= %10000000
		flip_bits	= (h_flip|v_flip)
		hv_flip		= flip_bits
		no_flip		= 0
	.endenum

; Control Register 0 [1](11.2.2)(p. 6)
PPU_CTLR0	= $2000
	.enum   ppu_ctlr0
		bg_bits		= %00000011
		bg1		= 0
		bg2		= 1
		bg3		= 2
		bg4		= 3
		bg_parity	= %00000001
		bg_odd		= bg_parity
		bg_even		= 0

		inc_bit		= %00000100
		inc_32		= inc_bit
		inc_1		= 0

		obj_seg_bit	= %00001000
		obj_seg1	= obj_seg_bit
		obj_seg0	= 0
		bg_seg_bit	= %00010000
		bg_seg1		= bg_seg_bit
		bg_seg0		= 0

		sprite_16_bit	= %00100000
		sprite_16	= sprite_16_bit
		sprite_8	= 0

		int		= %10000000
	.endenum
PPU_CTLR0_INC_PAGESIZE	= 32

; Control Register 1 [1](11.2.3)(p. 6)
PPU_CTLR1	= $2001
	.enum   ppu_ctlr1
		monotone_bit	= %00000001
		monotone	= monotone_bit
		color		= 0

		bglblk_bit	= %00000010
		bglblk_off	= bglblk_bit
		bglblk_on	= 0
		objlblk_bit	= %00000100
		objlblk_off	= objlblk_bit
		objlblk_on	= 0
		bgblk_bit	= %00001000
		bgblk_off	= bgblk_bit
		bgblk_on	= 0
		objblk_bit	= %00010000
		objblk_off	= objblk_bit
		objblk_on	= 0

		red		= %00100000
		green		= %01000000
		blue		= %10000000
	.endenum

; Status Register [1](11.2.4)(p. 6)
PPU_SR		= $2002
	.enum	ppu_sr
		strike		= %01000000
		int		= %10000000
	.endenum

; OAM Address Register [1](11.2.5)(p. 7)
PPU_OAM_AR	= $2003

; OAM Write [1](11.2.6)(p. 7)
PPU_OAM_WRITE	= $2004

; Scroll Register H,V [1](11.2.7)(p. 7)
PPU_SCC_H_V	= $2005

; VRAM Address Register H,L [1](11.2.8)(p. 7)
PPU_VRAM_AR	= $2006

; VRAM Read/Write [1](11.2.8)(p. 7)
PPU_VRAM_IO	= $2007

; Video RAM (VRAM) [1](11.2.9)(p. 7)
PPU_VRAM_BG_SIZE	= $400
PPU_VRAM_OBJ_CHR	= $0000
PPU_VRAM_OBJ_CHR_END	= $1000
PPU_VRAM_BG_CHR		= $1000
PPU_VRAM_BG_CHR_END	= $2000
PPU_VRAM_BG		= $2000
PPU_VRAM_BG1		= (PPU_VRAM_BG+(PPU_VRAM_BG_SIZE*0))
PPU_VRAM_BG2		= (PPU_VRAM_BG+(PPU_VRAM_BG_SIZE*1))
PPU_VRAM_BG3		= (PPU_VRAM_BG+(PPU_VRAM_BG_SIZE*2))
PPU_VRAM_BG4		= (PPU_VRAM_BG+(PPU_VRAM_BG_SIZE*3))
PPU_VRAM_COLOR		= $3F00
PPU_ADDR_SIZE		= 2

; Character Format [1](11.2.9.1)(p. 7)
PPU_CHR_SIZE		= 16
PPU_CHR_HEIGHT_PX	= 8
PPU_CHR_WIDTH_PX	= 8
PPU_COLOR_ROW_SIZE	= 4
PPU_COLOR_INDEX_MASK	= %00000011

; Background Format [1](11.2.9.2)(p. 8)
PPU_VRAM_ATTR_SIZE	= 256/4
PPU_VRAM_BG_ATTR	= (PPU_VRAM_BG_SIZE-PPU_VRAM_ATTR_SIZE)
PPU_VRAM_COLUMN_COUNT	= 32
PPU_VRAM_ROW_COUNT	= 30
PPU_BG_COLOR_LINE_0	= 0
PPU_BG_COLOR_LINE_1	= 1
PPU_BG_COLOR_LINE_2	= 2
PPU_BG_COLOR_LINE_3	= 3

PPU_BG_COLOR_LINE_0_ALL	= ((PPU_BG_COLOR_LINE_0<<6)|(PPU_BG_COLOR_LINE_0<<4)|(PPU_BG_COLOR_LINE_0<<2)|PPU_BG_COLOR_LINE_0)
PPU_BG_COLOR_LINE_1_ALL	= ((PPU_BG_COLOR_LINE_1<<6)|(PPU_BG_COLOR_LINE_1<<4)|(PPU_BG_COLOR_LINE_1<<2)|PPU_BG_COLOR_LINE_1)
PPU_BG_COLOR_LINE_2_ALL	= ((PPU_BG_COLOR_LINE_2<<6)|(PPU_BG_COLOR_LINE_2<<4)|(PPU_BG_COLOR_LINE_2<<2)|PPU_BG_COLOR_LINE_2)
PPU_BG_COLOR_LINE_3_ALL	= ((PPU_BG_COLOR_LINE_3<<6)|(PPU_BG_COLOR_LINE_3<<4)|(PPU_BG_COLOR_LINE_3<<2)|PPU_BG_COLOR_LINE_3)

PPU_BG_ROW_0		= (PPU_VRAM_COLUMN_COUNT*0)
PPU_BG_ROW_1		= (PPU_VRAM_COLUMN_COUNT*1)
PPU_BG_ROW_2		= (PPU_VRAM_COLUMN_COUNT*2)
PPU_BG_ROW_3		= (PPU_VRAM_COLUMN_COUNT*3)
PPU_BG_ROW_4		= (PPU_VRAM_COLUMN_COUNT*4)
PPU_BG_ROW_5		= (PPU_VRAM_COLUMN_COUNT*5)
PPU_BG_ROW_6		= (PPU_VRAM_COLUMN_COUNT*6)
PPU_BG_ROW_7		= (PPU_VRAM_COLUMN_COUNT*7)

PPU_BG_ROW_8		= (PPU_VRAM_COLUMN_COUNT*8)
PPU_BG_ROW_9		= (PPU_VRAM_COLUMN_COUNT*9)
PPU_BG_ROW_10		= (PPU_VRAM_COLUMN_COUNT*10)
PPU_BG_ROW_11		= (PPU_VRAM_COLUMN_COUNT*11)
PPU_BG_ROW_12		= (PPU_VRAM_COLUMN_COUNT*12)
PPU_BG_ROW_13		= (PPU_VRAM_COLUMN_COUNT*13)
PPU_BG_ROW_14		= (PPU_VRAM_COLUMN_COUNT*14)
PPU_BG_ROW_15		= (PPU_VRAM_COLUMN_COUNT*15)

PPU_BG_ROW_16		= (PPU_VRAM_COLUMN_COUNT*16)
PPU_BG_ROW_17		= (PPU_VRAM_COLUMN_COUNT*17)
PPU_BG_ROW_18		= (PPU_VRAM_COLUMN_COUNT*18)
PPU_BG_ROW_19		= (PPU_VRAM_COLUMN_COUNT*19)
PPU_BG_ROW_20		= (PPU_VRAM_COLUMN_COUNT*20)
PPU_BG_ROW_21		= (PPU_VRAM_COLUMN_COUNT*21)
PPU_BG_ROW_22		= (PPU_VRAM_COLUMN_COUNT*22)
PPU_BG_ROW_23		= (PPU_VRAM_COLUMN_COUNT*23)

PPU_BG_ROW_24		= (PPU_VRAM_COLUMN_COUNT*24)
PPU_BG_ROW_25		= (PPU_VRAM_COLUMN_COUNT*25)
PPU_BG_ROW_26		= (PPU_VRAM_COLUMN_COUNT*26)
PPU_BG_ROW_27		= (PPU_VRAM_COLUMN_COUNT*27)
PPU_BG_ROW_28		= (PPU_VRAM_COLUMN_COUNT*28)
PPU_BG_ROW_29		= (PPU_VRAM_COLUMN_COUNT*29)

PPU_BG_COL_0		= 0
PPU_BG_COL_1		= 1
PPU_BG_COL_2		= 2
PPU_BG_COL_3		= 3
PPU_BG_COL_4		= 4
PPU_BG_COL_5		= 5
PPU_BG_COL_6		= 6
PPU_BG_COL_7		= 7
PPU_BG_COL_8		= 8
PPU_BG_COL_9		= 9
PPU_BG_COL_10		= 10
PPU_BG_COL_11		= 11
PPU_BG_COL_12		= 12
PPU_BG_COL_13		= 13
PPU_BG_COL_14		= 14
PPU_BG_COL_15		= 15
PPU_BG_COL_16		= 16
PPU_BG_COL_17		= 17
PPU_BG_COL_18		= 18
PPU_BG_COL_19		= 19
PPU_BG_COL_20		= 20
PPU_BG_COL_21		= 21
PPU_BG_COL_22		= 22
PPU_BG_COL_23		= 23
PPU_BG_COL_24		= 24
PPU_BG_COL_25		= 25
PPU_BG_COL_26		= 26
PPU_BG_COL_27		= 27
PPU_BG_COL_28		= 28
PPU_BG_COL_29		= 29
PPU_BG_COL_30		= 30
PPU_BG_COL_31		= 31

; Color Generator [1](11.2.10)(p. 9)
PPU_COLOR_LINE_SIZE	= 4
PPU_COLOR_PAGE_SIZE	= (4*PPU_COLOR_LINE_SIZE)
PPU_COLOR_PAGE_BG	= PPU_VRAM_COLOR
PPU_COLOR_PAGE_OBJ	= (PPU_VRAM_COLOR+PPU_COLOR_PAGE_SIZE)
PPU_COLOR_TOTAL_SIZE	= (2*PPU_COLOR_PAGE_SIZE)
PPU_COLOR_GREY		= 0
PPU_COLOR_AZURE		= 1
PPU_COLOR_BLUE		= 2
PPU_COLOR_VIOLET	= 3
PPU_COLOR_MAGENTA	= 4
PPU_COLOR_ROSE		= 5
PPU_COLOR_RED		= 6
PPU_COLOR_ORANGE	= 7
PPU_COLOR_YELLOW	= 8
PPU_COLOR_YGREEN	= 9
PPU_COLOR_GREEN		= 10
PPU_COLOR_SPRING	= 11
PPU_COLOR_CYAN		= 12
PPU_COLOR_VSBLACK	= 13
PPU_COLOR_BLACK		= 14
PPU_COLOR_PITCH		= 15
PPU_COLOR_LEV0		= (0<<4)
PPU_COLOR_LEV1		= (1<<4)
PPU_COLOR_LEV2		= (2<<4)
PPU_COLOR_LEV3		= (3<<4)

; Object DMA [2](11.5)(p. 9)
OBJ_DMA		= $4014

.endif	; PPU_I
